﻿{
    "title": "动漫星空",
    "indexUrl": "https://www.dongmanxingkong.com/pic{pageStr:/page/{page:1}}",
    "indexRule": {
        "item": {
            "selector": "div[class='posts-loop clear']>div"
        },
        "idCode": {
            "selector": "a",
            "fun": "attr",
            "param": "href"
        },
        "cover": {
            "selector": "a img",
            "fun": "attr",
            "param": "src"
        },
        "title": {
            "selector": "h2.entry-title>a",
            "fun": "text"
        },
        "category": {
            "selector": "div[class='entry-summary']>p",
            "fun": "text"
        },
        "datetime": {
            "selector": "span.entry-date",
            "fun": "text"
        }
    },
    "galleryUrl": "{idCode:}",
    "galleryRule": {
        "pictureRule": {
            "item": {
                "selector": "div.entry-content>p>a[rel]"
            },
            "thumbnail": {
                "selector": "img",
                "fun": "attr",
                "param": "src"
            },
            "url": {
                "selector": "this",
                "fun": "attr",
                "param": "href"
            }
        },
        "tagRule": {
            "item": {
                "selector": "div.entry-tags>a"
            },
            "title": {
                "selector": "this",
                "fun": "text"
            },
            "url": {
                "selector": "this",
                "fun": "attr",
                "param": "href"
            }
        },
        "description": {
            "selector": "main#main>article",
            "fun": "text",
            "regex": "(.*?)动漫星空.*打赏(.*)",
            "replacement": "$1$2"
        }
    },
    "flag": "noRating|repeatedThumbnail",
    "searchUrl": "https://www.dongmanxingkong.com/page/{page:1}?s={keyword:}",
    "categories": [
        {
            "cid": 1,
            "title": "美图",
            "url": "https://www.dongmanxingkong.com/pic{pageStr:/page/{page:1}}"
        },
        {
            "cid": 2,
            "title": "资讯",
            "url": "https://www.dongmanxingkong.com/news{pageStr:/page/{page:1}}"
        },
        {
            "cid": 3,
            "title": "Cosplay",
            "url": "https://www.dongmanxingkong.com/cosplay{pageStr:/page/{page:1}}"
        },
        {
            "cid": 4,
            "title": "动漫",
            "url": "https://www.dongmanxingkong.com/acg{pageStr:/page/{page:1}}"
        },
        {
            "cid": 5,
            "title": "游戏",
            "url": "https://www.dongmanxingkong.com/game{pageStr:/page/{page:1}}"
        }
    ],
    "versionCode": 1
}