﻿{
    "title": "萌娘资源站",
    "indexRule": {
        "item": {
            "selector": "div[class='zhuti_w_list'] li,div.article>ul>li"
        },
        "idCode": {
            "selector": "li>a,div.txtt h3>a",
            "fun": "attr",
            "param": "href"
        },
        "cover": {
            "selector": "a img",
            "fun": "attr",
            "param": "src"
        },
        "title": {
            "selector": "span.zt_pic>em,div.txtt h3>a>b,h3>a",
            "fun": "text"
        },
        "category": {
            "selector": "span.zt_dep dd",
            "fun": "text",
            "regex": "(\\d+)",
            "replacement": "🔥:$1"
        },
        "datetime": {
            "selector": "span.zt_dep>dl,span[class='fr time']",
            "fun": "html",
            "regex": "(\\d{4}-\\d{2}-\\d{2})"
        }
    },
    "galleryUrl": "{idCode:}",
    "galleryRule": {
        "pictureRule": {
            "item": {
                "selector": "div[style^='text']>img"
            },
            "thumbnail": {
                "selector": "this",
                "fun": "attr",
                "param": "src"
            },
            "url": {
                "selector": "this",
                "fun": "attr",
                "param": "src"
            }
        },
        "tagRule": {
            "item": {
                "selector": "span.tags>a"
            },
            "title": {
                "selector": "this",
                "fun": "text"
            },
            "url": {
                "selector": "this",
                "fun": "attr",
                "param": "href"
            }
        },
        "description": {
            "selector": "div.content_nr",
            "fun": "html"
        },
        "uploader": {
            "selector": "span.data",
            "fun": "text"
        }
    },
    "flag": "noRating",
    "categories": [
        {
            "cid": 1,
            "title": "萌图",
            "url": "http://moe.005.tv/moeimg{pageStr:/list_2_{page:1}.html}"
        },
        {
            "cid": 3,
            "title": "Cosplay",
            "url": "http://moe.005.tv/cosplay/{pageStr:/list_2_{page:1}.html}"
        }
    ],
    "versionCode": 1
}