﻿{
    "title": "Nectar AI",
    "header": "Accept:application/json;odata=verbose",
    "loginUrl": "https://login.microsoftonline.com/1c5b36df-8283-427a-a924-d41dba8c1d6a/oauth2/authorize?client_id=00000003-0000-0ff1-ce00-000000000000&response_mode=form_post&response_type=code id_token&resource=00000003-0000-0ff1-ce00-000000000000&scope=openid&nonce=AD19EC91DD77591B4A1ABBB8C468EB6617316537FB24A0B6-70CA22F7D52C27C79C682FF237D1E33C1D571345FFCB756BEB9ADBDE2B255709&redirect_uri=https://gedobusoftwarestudio.sharepoint.com/_forms/default.aspx&state=OD0w",
    "categories": [
        {
            "cid": 1,
            "title": "Default",
            "url": "https://gedobusoftwarestudio.sharepoint.com/sites/Alpser/_api/Web/lists/getbytitle('Nectar AI')/items?$expand=File&$select=File,ReleaseDate,Prompt,Negativeprompt&$orderby=ReleaseDate desc"
        }
    ],
    "indexUrl": "https://gedobusoftwarestudio.sharepoint.com/sites/Alpser/_api/Web/lists/getbytitle('Nectar AI')/items?$expand=File&$select=File,ReleaseDate,Prompt,Negativeprompt&$orderby=ReleaseDate desc",
    "nextPage": {
        "path": "$.d.__next"
    },
    "indexRule": {
        "item": {
            "path": "$.d.results"
        },
        "cover": {
            "path": "$..ServerRelativeUrl",
            "regex": "(.*)",
            "replacement": "https://gedobusoftwarestudio.sharepoint.com$1"
        },
        "idCode": {
            "path": "$..Title",
            "fun": "encode"
        },
        "title": {
            "path": "$..Title"
        }
    },
    "galleryUrl": "https://gedobusoftwarestudio.sharepoint.com/sites/Alpser/_api/Web/lists/getbytitle('Nectar AI')/items?$expand=File&$select=File,ReleaseDate,Prompt,Negativeprompt&$filter=Title eq '{idCode:}'",
    "searchUrl": "https://gedobusoftwarestudio.sharepoint.com/sites/Alpser/_api/Web/lists/getbytitle('Nectar AI')/items?$expand=File&$select=File,ReleaseDate,Prompt,Negativeprompt&$filter=substringof('{keyword:}', Title)&$orderby=ReleaseDate desc",
    "galleryRule": {
        "pictureRule": {
            "item": {
                "path": "$.d.results"
            },
            "thumbnail": {
                "path": "$..ServerRelativeUrl",
                "regex": "(.*)",
                "replacement": "https://gedobusoftwarestudio.sharepoint.com$1"
            },
            "url": {
                "path": "$..ServerRelativeUrl",
                "regex": "(.*)",
                "replacement": "https://gedobusoftwarestudio.sharepoint.com$1"
            }
        },
        "datetime": {
            "path": "$..ReleaseDate"
        },
        "description": {
            "path": "$..Negativeprompt"
        }
    },
    "flag": "preloadGallery|noRating|loginRequired|waterfallAsGrid|waterfallAsList",
    "versionCode": 1
}
