﻿{
    "disableHProxy": false,
    "extraRule": {
        "pictureRule": {
            "url": {
                "regex": "//(.*?\\.(?:jpg|jpeg|png|gif|bmp|webp))",
                "replacement": "https://$1",
                "selector": "#image-container a img"
            }
        }
    },
    "flag": "singlePageBigPicture|noRating|preloadGallery|waterfallAsGrid|waterfallAsList",
    "galleryRule": {
        "category": {
            "fun": "html",
            "regex": "name.*?>(.*?)</span",
            "selector": ".tag-container:eq(6) span.tags a"
        },
        "pictureRule": {
            "item": {
                "selector": "div.container div.thumb-container"
            },
            "thumbnail": {
                "regex": "//(.*?\\.(?:jpg|jpeg|png|gif|bmp|webp))",
                "replacement": "https://$1",
                "selector": "a img"
            },
            "url": {
                "fun": "attr",
                "param": "href",
                "selector": "a"
            }
        },
        "tags": {
            "fun": "html",
            "selector": "span.tags a",
            "regex": "name.*?>(.*?)</span"
        },
        "title": {
            "fun": "html",
            "selector": "div#info h2",
            "regex": "before.*?>(.*?)</span"
        }
    },
    "galleryUrl": "https://nhentai.net/{idCode:}",
    "gid": 3,
    "index": 0,
    "indexRule": {
        "cover": {
            "regex": "//(.*?\\.(?:jpg|jpeg|png|gif|bmp|webp))",
            "replacement": "https://$1",
            "selector": "a img"
        },
        "idCode": {
            "fun": "attr",
            "param": "href",
            "regex": "/(.*)",
            "selector": "a"
        },
        "item": {
            "selector": "div.container div.gallery"
        },
        "title": {
            "fun": "html",
            "selector": "a div.caption"
        }
    },
    "indexUrl": "https://nhentai.net/?page={page:1}",
    "isGrid": false,
    "loginUrl": "https://nhentai.net/login/",
    "searchUrl": "https://nhentai.net/search/?q={keyword:}&page={page:1}",
    "sid": 19,
    "title": "nhentai",
    "versionCode": 6
}