﻿{
    "title": "nuyou8",
    "indexUrl": "https://www.nuyou8.com{pageStr:/page_{page:1}.html}",
    "indexRule": {
        "item": {
            "selector": "main.main>article"
        },
        "idCode": {
            "selector": "div>a",
            "fun": "attr",
            "param": "href"
        },
        "cover": {
            "selector": "div img",
            "fun": "attr",
            "param": "src"
        },
        "title": {
            "selector": "h2>a",
            "fun": "text"
        }
    },
    "galleryUrl": "{idCode:}{pageStr:?page={page:1}}",
    "galleryRule": {
        "pictureRule": {
            "item": {
                "selector": "div.entry>p>a"
            },
            "thumbnail": {
                "selector": "img",
                "fun": "attr",
                "param": "src"
            },
            "url": {
                "selector": "img",
                "fun": "attr",
                "param": "src"
            }
        },
        "commentRule":{
            "item":{
                "selector":"div.comment-list>ol>li"
            },
            "author":{
                "selector":"div.gravatar>img",
                "fun":"attr",
                "param":"alt"
            },
            "avatar":{
                "selector":"div.gravatar>img",
                "fun":"attr",
                "param":"original"
            },
            "content":{
                "selector":"div.cmt-info>div.cmt-cont",
                "fun":"html"
            }
        },
        "tagRule": {
            "item": {
                "selector": "div.tags>a"
            },
            "title": {
                "selector": "this",
                "fun": "text"
            },
            "url": {
                "selector": "this",
                "fun": "attr",
                "param": "href"
            }
        },
        "category": {
            "selector": "div.postmeta",
            "fun": "text"
        }
    },
    
    "flag": "preloadGallery|noRating",
    "searchUrl": "https://www.nuyou8.com/search.php?q={keyword:}{pageStr:page={page:1}}",
    "categories": [
        {
            "cid": 1,
            "title": "首页",
            "url": "https://www.nuyou8.com{pageStr:/page_{page:1}.html}"
        },
        {
            "cid": 2,
            "title": "女优",
            "url": "https://www.nuyou8.com/category-1_{page:}.html"
        },
        {
            "cid": 3,
            "title": "AV",
            "url": "https://www.nuyou8.com/category-2_{page:}.html"
        },
        {
            "cid": 4,
            "title": "撸女",
            "url": "https://www.nuyou8.com/category-3_{page:}.html"
        },
        {
            "cid": 5,
            "title": "推女",
            "url": "https://www.nuyou8.com/category-5_{page:}.html"
        },
        {
            "cid":6,
            "title":"日韩",
            "url":"https://www.nuyou8.com/category-6_{page:}.html"
        },
        {
            "cid":7,
            "title":"欧美",
            "url":"https://www.nuyou8.com/category-8_{page:}.html"
        }
    ],
    "versionCode": 1
}