{
    "title": "www.nvshens",
    "flag": "preloadGallery|noRating",
    "indexUrl": "https://www.nvshens.net/girl/27559/album/{pageStr:pages{1}.html}",
    "isGrid": false,
    "indexRule": {
        "item": {
            "selector": "li.igalleryli"
        },
        "cover": {
            "fun": "null",
            "selector": "img",
            "regex": "(https://.*.jpg)"
        },
        "idCode": {
            "fun": "attr",
            "param": "href",
            "selector": "a"
        },
        "title": {
            "fun": "attr",
            "param": "alt",
            "selector": " img"
        },
        "datetime": {
            "fun": "text",
            "selector": "div.igalleryli_title",
            "regex": "(\\d{4}.\\d{2}.\\d{2})"
        }
    },
    "galleryUrl": "https://www.nvshens.net{idCode:}{pageStr:{page:1}.html}",
    "galleryRule": {
        "category": {
            "selector": "div#dinfo",
            "fun": "text"
        },
        "description": {
            "fun": "html",
            "selector": "div#ddesc"
        },
        "pictureRule": {
            "item": {
                "selector": "ul#hgallery>img"
            },
            "thumbnail": {
                "regex": "(https://.*.jpg)",
                "selector": "this"
            },
            "url": {
                "selector": "this",
                "regex": "(https://.*)/s/(.*.jpg)",
                "replacement": "$1/$2"
            }
        },
        "tags": {
            "selector": "div[class ='album_tags'] a",
            "fun": "text"
        }
    },
    "searchUrl": "https://www.nvshens.net/girl/search.aspx?name={keyword:}",
    "categories": [
        {
            "cid": 1,
            "title": "sugar小甜心CC",
            "url": "https://www.nvshens.net/girl/22162/album/{pageStr:pages{1}.html}"
        },
        {
            "cid": 2,
            "title": "夏诗雯",
            "url": "https://www.nvshens.net/girl/27761/album/{pageStr:pages{1}.html}"
        },
        {
            "cid": 3,
            "title": "林文文",
            "url": "https://www.nvshens.net/girl/27715/album/{pageStr:pages{1}.html}"
        },
        {
            "cid": 4,
            "title": "UU酱",
            "url": "https://www.nvshens.net/girl/27866/album/{pageStr:pages{1}.html}"
        },
        {
            "cid": 5,
            "title": "陆萱萱",
            "url": "https://www.nvshens.net/girl/27559/album/{pageStr:pages{1}.html}"
        },
        {
            "cid": 6,
            "title": "玉兔miki",
            "url": "https://www.nvshens.net/girl/22186/album/{pageStr:pages{1}.html}"
        },
        {
            "cid": 7,
            "title": "米妮大萌萌",
            "url": "https://www.nvshens.net/girl/19411/album/{pageStr:pages{1}.html}"
        },
        {
            "cid": 8,
            "title": "王雨纯",
            "url": "https://www.nvshens.net/girl/19702/album/{pageStr:pages{1}.html}"
        },
        {
            "cid": 9,
            "title": "梦心月",
            "url": "https://www.nvshens.net/girl/23100/album/{pageStr:pages{1}.html}"
        },
        {
            "cid": 10,
            "title": "Betty林子欣",
            "url": "https://www.nvshens.net/girl/27501/album/{pageStr:pages{1}.html}"
        },
        {
            "cid": 11,
            "title": "周于希dummy",
            "url": "https://www.nvshens.net/girl/24410/album/{pageStr:pages{1}.html}"
        },
        {
            "cid": 12,
            "title": "芝芝Booty",
            "url": "https://www.nvshens.net/girl/22899/album/{pageStr:pages{1}.html}"
        },
        {
            "cid": 13,
            "title": "小喜",
            "url": "https://www.nvshens.net/girl/27598/album/{pageStr:pages{1}.html}"
        },
        {
            "cid": 14,
            "title": "dodo",
            "url": "https://www.nvshens.net/girl/27884/album/{pageStr:pages{1}.html}"
        },
        {
            "cid": 15,
            "title": "周妍希",
            "url": "https://www.nvshens.net/girl/20763/album/{pageStr:pages{1}.html}"
        },
        {
            "cid": 16,
            "title": "barbie可儿",
            "url": "https://www.nvshens.net/girl/17204/album/{pageStr:pages{1}.html}"
        },
        {
            "cid": 17,
            "title": "陈小喵",
            "url": "https://www.nvshens.net/girl/27717/album/{pageStr:pages{1}.html}"
        },
        {
            "cid": 18,
            "title": "蓝夏Akasha",
            "url": "https://www.nvshens.net/girl/24004/album/{pageStr:pages{1}.html}"
        },
        {
            "cid": 19,
            "title": "徐微微",
            "url": "https://www.nvshens.net/girl/26206/album/{pageStr:pages{1}.html}"
        },
        {
            "cid": 20,
            "title": "Egg-尤妮丝",
            "url": "https://www.nvshens.net/girl/24936/album/{pageStr:pages{1}.html}"
        },
        {
            "cid": 21,
            "title": "angela喜欢猫",
            "url": "https://www.nvshens.net/girl/22204/album/{pageStr:pages{1}.html}"
        },
        {
            "cid": 22,
            "title": "就是阿朱啊",
            "url": "https://www.nvshens.net/girl/26002/album/{pageStr:pages{1}.html}"
        },
        {
            "cid": 23,
            "title": "莉可",
            "url": "https://www.nvshens.net/girl/26690/album/{pageStr:pages{1}.html}"
        },
        {
            "cid": 24,
            "title": "Anna苏拉",
            "url": "https://www.nvshens.net/girl/27554/album/{pageStr:pages{1}.html}"
        },
        {
            "cid": 25,
            "title": "生如夏花",
            "url": "https://www.nvshens.net/girl/27001/album/{pageStr:pages{1}.html}"
        },
        {
            "cid": 26,
            "title": "妲己_Toxic",
            "url": "https://www.nvshens.net/girl/22359/album/{pageStr:pages{1}.html}"
        },
        {
            "cid": 27,
            "title": "乔巧",
            "url": "https://www.nvshens.net/girl/25586/album/{pageStr:pages{1}.html}"
        },
        {
            "cid": 28,
            "title": "Lavinia肉",
            "url": "https://www.nvshens.net/girl/26038/album/{pageStr:pages{1}.html}"
        },
        {
            "cid": 29,
            "title": "九月生",
            "url": "https://www.nvshens.net/girl/26563/album/{pageStr:pages{1}.html}"
        },
        {
            "cid": 30,
            "title": "Eve雯仔",
            "url": "https://www.nvshens.net/girl/25756/album/{pageStr:pages{1}.html}"
        },
        {
            "cid": 31,
            "title": "徐安安",
            "url": "https://www.nvshens.net/girl/27828/album/{pageStr:pages{1}.html}"
        },
        {
            "cid": 32,
            "title": "沈梦瑶",
            "url": "https://www.nvshens.net/girl/21036/album/{pageStr:pages{1}.html}"
        },
        {
            "cid": 33,
            "title": "杨紫嫣",
            "url": "https://www.nvshens.net/girl/27758/album/{pageStr:pages{1}.html}"
        },
        {
            "cid": 34,
            "title": "陈茜妮",
            "url": "https://www.nvshens.net/girl/27870/album/{pageStr:pages{1}.html}"
        },
        {
            "cid": 35,
            "title": "心妍公主",
            "url": "https://www.nvshens.net/girl/16232/album/{pageStr:pages{1}.html}"
        },
        {
            "cid": 36,
            "title": "绯月樱",
            "url": "https://www.nvshens.net/girl/22514/album/{pageStr:pages{1}.html}"
        },
        {
            "cid": 37,
            "title": "顾奈奈酱",
            "url": "https://www.nvshens.net/girl/25332/album/{pageStr:pages{1}.html}"
        },
        {
            "cid": 38,
            "title": "若熙",
            "url": "https://www.nvshens.net/girl/20333/album/{pageStr:pages{1}.html}"
        },
        {
            "cid": 39,
            "title": "玛鲁娜",
            "url": "https://www.nvshens.net/girl/20625/album/{pageStr:pages{1}.html}"
        },
        {
            "cid": 40,
            "title": "金茜",
            "url": "https://www.nvshens.net/girl/27861/album/{pageStr:pages{1}.html}"
        },
        {
            "cid": 41,
            "title": "筱慧",
            "url": "https://www.nvshens.net/girl/24041/album/{pageStr:pages{1}.html}"
        },
        {
            "cid": 42,
            "title": "田冰冰",
            "url": "https://www.nvshens.net/girl/27859/album/{pageStr:pages{1}.html}"
        },
        {
            "cid": 43,
            "title": "孙梦瑶",
            "url": "https://www.nvshens.net/girl/24774/album/{pageStr:pages{1}.html}"
        },
        {
            "cid": 44,
            "title": "哈尼宝宝",
            "url": "https://www.nvshens.net/girl/23282/album/{pageStr:pages{1}.html}"
        },
        {
            "cid": 45,
            "title": "艺轩Renee",
            "url": "https://www.nvshens.net/girl/24633/album/{pageStr:pages{1}.html}"
        },
        {
            "cid": 46,
            "title": "小尤奈",
            "url": "https://www.nvshens.net/girl/26740/album/{pageStr:pages{1}.html}"
        },
        {
            "cid": 47,
            "title": "夏美酱",
            "url": "https://www.nvshens.net/girl/21501/album/{pageStr:pages{1}.html}"
        },
        {
            "cid": 48,
            "title": "纯小希",
            "url": "https://www.nvshens.net/girl/17198/album/{pageStr:pages{1}.html}"
        },
        {
            "cid": 49,
            "title": "Sara",
            "url": "https://www.nvshens.net/girl/27869/album/{pageStr:pages{1}.html}"
        },
        {
            "cid": 50,
            "title": "易阳",
            "url": "https://www.nvshens.net/girl/21743/album/{pageStr:pages{1}.html}"
        },
        {
            "cid": 51,
            "title": "松果儿",
            "url": "https://www.nvshens.net/girl/19551/album/{pageStr:pages{1}.html}"
        },
        {
            "cid": 52,
            "title": "Miko酱",
            "url": "https://www.nvshens.net/girl/26434/album/{pageStr:pages{1}.html}"
        },
        {
            "cid": 53,
            "title": "何嘉颖",
            "url": "https://www.nvshens.net/girl/21790/album/{pageStr:pages{1}.html}"
        },
        {
            "cid": 54,
            "title": "许诺Sabrina",
            "url": "https://www.nvshens.net/girl/18879/album/{pageStr:pages{1}.html}"
        },
        {
            "cid": 55,
            "title": "YUNDUOER_",
            "url": "https://www.nvshens.net/girl/26292/album/{pageStr:pages{1}.html}"
        },
        {
            "cid": 56,
            "title": "冯木木LRIS",
            "url": "https://www.nvshens.net/girl/22456/album/{pageStr:pages{1}.html}"
        },
        {
            "cid": 57,
            "title": "陈良玲",
            "url": "https://www.nvshens.net/girl/25291/album/{pageStr:pages{1}.html}"
        },
        {
            "cid": 58,
            "title": "黄楽然",
            "url": "https://www.nvshens.net/girl/20015/album/{pageStr:pages{1}.html}"
        },
        {
            "cid": 59,
            "title": "白衣校花",
            "url": "https://www.nvshens.net/girl/27851/album/{pageStr:pages{1}.html}"
        },
        {
            "cid": 60,
            "title": "刀妹",
            "url": "https://www.nvshens.net/girl/27852/album/{pageStr:pages{1}.html}"
        }
    ],
    "versionCode": 2
}