﻿{
    "title": "xgmn",
    "indexUrl": "https://www.xgmn.org/top.html",
    "header":"Referer:https://www.xgmn.org",
    "indexRule": {
        "item": {
            "selector": "div.biank1,div.dan1,div.dan"
        },
        "cover": {
            "fun": "attr",
            "param": "src",
            "selector": "img"
        },
        "datetime": {
            "selector": "div,a",
            "fun": "text",
            "regex": "(\\d{2}.\\d{2}.*)"
        },
        "idCode": {
            "selector": "a",
            "fun": "attr",
            "param": "href",
            "regex": "(.*?).html"
        },
        "title": {
            "selector": "img",
            "fun": "attr",
            "param": "title"
        }
    },
    "galleryUrl": "https://www.xgmn.org{idCode:}{pageStr:_{page:}}.html",
    "galleryRule": {
        "pictureRule": {
            "item": {
                "selector": "div.img>p>img"
            },
            "thumbnail": {
                "fun": "attr",
                "param": "src",
                "selector": "img"
            },
            "url": {
                "fun": "attr",
                "param": "src",
                "selector": "img"
            }
        },
        "description": {
            "selector": "div.ina>p:last-child",
            "fun": "text"
        },
        "tags": {
            "selector": "[name='keywords']",
            "fun": "attr",
            "param": "content",
            "regex": "([^,]+)"
        }
    },
    "flag": "preloadGallery|noRating",
    "categories": [
        {
            "cid": 1,
            "title": "最新经典推荐",
            "url": "https://www.xgmn.org"
        },
        {
            "cid": 2,
            "title": "推荐美女Top100",
            "url": "https://www.xgmn.org/top.html"
        },
        {
            "cid": 3,
            "title": "性感尤物,网红女神",
            "url": "https://www.xgmn.org/Xgyw/{pageStr:page_{page:1}.html}"
        },
        {
            "cid": 4,
            "title": "Tuigirl推女郎",
            "url": "https://www.xgmn.org/Tuigirl/{pageStr:page_{page:1}.html}"
        },
        {
            "cid": 5,
            "title": "Ugirls尤果网",
            "url": "https://www.xgmn.org/Ugirls/{pageStr:page_{page:1}.html}"
        },
        {
            "cid": 6,
            "title": "Tgod推女神,QingDouKe青豆客",
            "url": "https://www.xgmn.org/Tgod/{pageStr:page_{page:1}.html}"
        },
        {
            "cid": 7,
            "title": "TouTiao头条女神",
            "url": "https://www.xgmn.org/TouTiao/{pageStr:page_{page:1}.html}"
        },
        {
            "cid": 8,
            "title": "Girlt果团网",
            "url": "https://www.xgmn.org/Girlt/{pageStr:page_{page:1}.html}"
        },
        {
            "cid": 9,
            "title": "Ugirls爱尤物",
            "url": "https://www.xgmn.org/Aiyouwu/{pageStr:page_{page:1}.html}"
        },
        {
            "cid": 10,
            "title": "LEGBABY美腿宝贝",
            "url": "https://www.xgmn.org/LEGBABY/{pageStr:page_{page:1}.html}"
        },
        {
            "cid": 11,
            "title": "喵糖映画",
            "url": "https://www.xgmn.org/Mtcos/{pageStr:page_{page:1}.html}"
        },
        {
            "cid": 12,
            "title": "MissLeg蜜丝",
            "url": "https://www.xgmn.org/MissLeg/{pageStr:page_{page:1}.html}"
        },
        {
            "cid": 13,
            "title": "波萝社新刊",
            "url": "https://www.xgmn.org/BoLoli/{pageStr:page_{page:1}.html}"
        },
        {
            "cid": 14,
            "title": "Slady猎女神",
            "url": "https://www.xgmn.org/Slady/{pageStr:page_{page:1}.html}"
        },
        {
            "cid": 15,
            "title": "YouMei尤美/YouMi尤蜜",
            "url": "https://www.xgmn.org/YouMei/{pageStr:page_{page:1}.html}"
        },
        {
            "cid": 16,
            "title": "Xiuren秀人",
            "url": "https://www.xgmn.org/Xiuren/{pageStr:page_{page:1}.html}"
        },
        {
            "cid": 17,
            "title": "MyGirl美媛馆",
            "url": "https://www.xgmn.org/MyGirl/{pageStr:page_{page:1}.html}"
        },
        {
            "cid": 18,
            "title": "YouWu尤物馆",
            "url": "https://www.xgmn.org/YouWu/{pageStr:page_{page:1}.html}"
        },
        {
            "cid": 19,
            "title": "IMiss爱蜜社",
            "url": "https://www.xgmn.org/IMiss/{pageStr:page_{page:1}.html}"
        },
        {
            "cid": 20,
            "title": "MiiTao蜜桃社",
            "url": "https://www.xgmn.org/MiiTao/{pageStr:page_{page:1}.html}"
        },
        {
            "cid": 21,
            "title": "Uxing优星馆",
            "url": "https://www.xgmn.org/Uxing/{pageStr:page_{page:1}.html}"
        },
        {
            "cid": 22,
            "title": "FeiLin嗲囡囡",
            "url": "https://www.xgmn.org/FeiLin/{pageStr:page_{page:1}.html}"
        },
        {
            "cid": 23,
            "title": "MiStar魅妍社",
            "url": "https://www.xgmn.org/MiStar/{pageStr:page_{page:1}.html}"
        },
        {
            "cid": 24,
            "title": "Tukmo兔几盟",
            "url": "https://www.xgmn.org/Tukmo/{pageStr:page_{page:1}.html}"
        },
        {
            "cid": 25,
            "title": "WingS影私荟",
            "url": "https://www.xgmn.org/WingS/{pageStr:page_{page:1}.html}"
        },
        {
            "cid": 26,
            "title": "LeYuan星乐园",
            "url": "https://www.xgmn.org/LeYuan/{pageStr:page_{page:1}.html}"
        },
        {
            "cid": 27,
            "title": "Taste顽味生活",
            "url": "https://www.xgmn.org/Taste/{pageStr:page_{page:1}.html}"
        },
        {
            "cid": 28,
            "title": "MFStar模范学院",
            "url": "https://www.xgmn.org/MFStar/{pageStr:page_{page:1}.html}"
        },
        {
            "cid": 29,
            "title": "Huayan花の颜",
            "url": "https://www.xgmn.org/Huayan/{pageStr:page_{page:1}.html}"
        },
        {
            "cid": 30,
            "title": "DKGirl御女郎",
            "url": "https://www.xgmn.org/DKGirl/{pageStr:page_{page:1}.html}"
        },
        {
            "cid": 31,
            "title": "Candy网红馆/Candy糖果画报",
            "url": "https://www.xgmn.org/Candy/{pageStr:page_{page:1}.html}"
        },
        {
            "cid": 32,
            "title": "YouMi尤蜜荟",
            "url": "https://www.xgmn.org/YouMi/{pageStr:page_{page:1}.html}"
        },
        {
            "cid": 33,
            "title": "MintYe薄荷叶",
            "url": "https://www.xgmn.org/MintYe/{pageStr:page_{page:1}.html}"
        },
        {
            "cid": 34,
            "title": "RUISG瑞丝馆/Micat猫萌榜",
            "url": "https://www.xgmn.org/Micat/{pageStr:page_{page:1}.html}"
        },
        {
            "cid": 35,
            "title": "Mtmeng模特联盟",
            "url": "https://www.xgmn.org/Mtmeng/{pageStr:page_{page:1}.html}"
        },
        {
            "cid": 36,
            "title": "HuaYang花漾Show",
            "url": "https://www.xgmn.org/HuaYang/{pageStr:page_{page:1}.html}"
        },
        {
            "cid": 37,
            "title": "XingYan星颜社",
            "url": "https://www.xgmn.org/XingYan/{pageStr:page_{page:1}.html}"
        },
        {
            "cid": 38,
            "title": "XiaoYu画语界",
            "url": "https://www.xgmn.org/XiaoYu/{pageStr:page_{page:1}.html}"
        }
    ],
    "versionCode": 1
}