﻿{
    "categories": [
        {
            "cid": 36,
            "title": "美女图片",
            "url": "https://www.umei.cc/meinvtupian/{pageStr:index_{page:1}.htm}"
        }
    ],
    "disableHProxy": false,
    "flag": "noRating|preloadGallery|waterfallAsGrid",
    "galleryRule": {
        "datetime": {
            "fun": "text",
            "selector": "div.ArticleInfos>span.time"
        },
        "pictureRule": {
            "item": {
                "selector": "div.ImageBody img"
            },
            "thumbnail": {
                "fun": "attr",
                "param": "src",
                "selector": "this"
            },
            "url": {
                "fun": "attr",
                "param": "src",
                "selector": "this"
            }
        },
        "tags": {
            "fun": "text",
            "selector": "dl.articleTag l>dl>dd>a"
        },
        "uploader": {
            "fun": "text",
            "selector": "div.ArticleInfos>span.see"
        }
    },
    "galleryUrl": "https://www.umei.cc/{idCode:}{pageStr:_{page:1}}.htm",
    "gid": 3,
    "index": 0,
    "indexRule": {
        "cover": {
            "fun": "attr",
            "param": "src",
            "selector": "img"
        },
        "datetime": {
            "fun": "text",
            "selector": "div.txtInfo gray>em.IcoTime"
        },
        "idCode": {
            "fun": "attr",
            "param": "href",
            "regex": "/(.*)\\.htm",
            "selector": "a"
        },
        "item": {
            "selector": "div.TypeList>ul>li"
        },
        "title": {
            "fun": "text",
            "selector": "a>span"
        },
        "uploader": {
            "fun": "text",
            "selector": "div.txtInfo gray>em.IcoList"
        }
    },
    "indexUrl": "https://www.umei.cc/meinvtupian/{pageStr:index_{page:1}.htm}",
    "isGrid": true,
    "searchUrl": "https://www.umei.cc/umplus/search.php?keyword={keyword:}&searchtype=titlekeyword&channeltype=0&orderby=&kwtype=0&pagesize=24&typeid=0&TotalResult=3214&PageNo={page:1}",
    "sid": 32,
    "title": "优美图库",
    "versionCode": 0
}